Pizza
…
---
#Do we have the same issue with community ratings?
--

```
## # A tibble: 73 × 2
##    review_stats_community_count     n
##                           <dbl> <int>
##  1                            0    41
##  2                            1    33
##  3                            2    41
##  4                            3    29
##  5                            4    43
##  6                            5    14
##  7                            6    22
##  8                            7    22
##  9                            8    23
## 10                            9    10
## # ℹ 63 more rows
```
…
